[{"id":1,"Fecha":"2017/08/31","Importe":84.15,"latitud":"55.7","longitud":"37.75","Ciudad":"Novyye Kuz’minki"},
{"id":2,"Fecha":"2017/10/03","Importe":61.97,"latitud":34.554624,"longitud":108.631718,"Ciudad":"Fenghuo"},
{"id":3,"Fecha":"2017/05/21","Importe":44.4,"latitud":30.699439,"longitud":115.078981,"Ciudad":"Zongluzui"},
{"id":4,"Fecha":"2017/04/18","Importe":73.81,"latitud":46.4244411,"longitud":16.4312318,"Ciudad":"Mačkovec"},
{"id":5,"Fecha":"2017/08/13","Importe":26.16,"latitud":50.0667486,"longitud":22.5015349,"Ciudad":"Przeworsk"},
{"id":6,"Fecha":"2017/11/13","Importe":44.38,"latitud":29.173201,"longitud":48.118031,"Ciudad":"Al Funayţīs"},
{"id":7,"Fecha":"2017/06/24","Importe":52.46,"latitud":54.5941065,"longitud":17.8604786,"Ciudad":"Łęczyce"},
{"id":8,"Fecha":"2017/09/15","Importe":74.43,"latitud":27.756647,"longitud":118.035309,"Ciudad":"Wuqishan"},
{"id":9,"Fecha":"2017/01/28","Importe":18.8,"latitud":-8.2358977,"longitud":114.9605861,"Ciudad":"Mayong"},
{"id":10,"Fecha":"2017/12/04","Importe":57.24,"latitud":-6.9757129,"longitud":107.5801033,"Ciudad":"Margahayu"},
{"id":11,"Fecha":"2017/11/15","Importe":30.32,"latitud":16.6036472,"longitud":103.0472164,"Ciudad":"Kranuan"},
{"id":12,"Fecha":"2017/12/20","Importe":90.97,"latitud":51.8281611,"longitud":4.1481143,"Ciudad":"Hellevoetsluis"},
{"id":13,"Fecha":"2017/03/30","Importe":36.1,"latitud":55.4928171,"longitud":45.6316463,"Ciudad":"Sergach"},
{"id":14,"Fecha":"2017/10/07","Importe":78.64,"latitud":62.6014659,"longitud":25.7278806,"Ciudad":"Äänekoski"},
{"id":15,"Fecha":"2017/01/24","Importe":94.16,"latitud":44.8353965,"longitud":38.8764177,"Ciudad":"Novodmitriyevskaya"},
{"id":16,"Fecha":"2017/12/28","Importe":46.74,"latitud":37.401244,"longitud":22.1364871,"Ciudad":"Megalópoli"},
{"id":17,"Fecha":"2017/12/22","Importe":66.11,"latitud":61.00862,"longitud":14.57173,"Ciudad":"Mora"},
{"id":18,"Fecha":"2017/03/07","Importe":45.95,"latitud":39.030297,"longitud":117.566112,"Ciudad":"Zhongxinqiao"},
{"id":19,"Fecha":"2017/03/22","Importe":65.47,"latitud":44.351935,"longitud":-87.8445954,"Ciudad":"København"},
{"id":20,"Fecha":"2017/08/23","Importe":30.89,"latitud":14.5999366,"longitud":121.012518,"Ciudad":"Santa Teresa"},
{"id":21,"Fecha":"2017/07/15","Importe":59.44,"latitud":35.963912,"longitud":105.729085,"Ciudad":"Xieji"},
{"id":22,"Fecha":"2017/02/19","Importe":99.05,"latitud":45.3444075,"longitud":20.5145956,"Ciudad":"Lukićevo"},
{"id":23,"Fecha":"2017/06/08","Importe":23.38,"latitud":-34.7611766,"longitud":-56.3628409,"Ciudad":"Delta del Tigre"},
{"id":24,"Fecha":"2017/01/17","Importe":63.65,"latitud":45.6728599,"longitud":18.984314,"Ciudad":"Apatin"},
{"id":25,"Fecha":"2017/12/16","Importe":93.83,"latitud":28.229271,"longitud":120.997332,"Ciudad":"Danxi"},
{"id":26,"Fecha":"2017/08/10","Importe":6.79,"latitud":62.0772471,"longitud":49.5698112,"Ciudad":"Zheshart"},
{"id":27,"Fecha":"2017/01/19","Importe":65.79,"latitud":-7.2906502,"longitud":108.4691492,"Ciudad":"Dusun Desa Bunter"},
{"id":28,"Fecha":"2017/05/10","Importe":47.03,"latitud":30.9329039,"longitud":121.4518015,"Ciudad":"Baziqiao"},
{"id":29,"Fecha":"2017/09/29","Importe":12.83,"latitud":24.874132,"longitud":118.675675,"Ciudad":"Quanzhou"},
{"id":30,"Fecha":"2017/03/23","Importe":8.97,"latitud":52.5485032,"longitud":13.2385645,"Ciudad":"Berlin"},
{"id":31,"Fecha":"2017/01/15","Importe":83.75,"latitud":56.4797638,"longitud":57.7301714,"Ciudad":"Sarana"},
{"id":32,"Fecha":"2017/08/26","Importe":31.62,"latitud":58.2609408,"longitud":12.9683864,"Ciudad":"Smedjebacken"},
{"id":33,"Fecha":"2017/08/01","Importe":7.85,"latitud":-7.9060665,"longitud":112.5201746,"Ciudad":"Oro Timur"},
{"id":34,"Fecha":"2017/10/11","Importe":45.94,"latitud":50.023333,"longitud":20.6832469,"Ciudad":"Łęki"},
{"id":35,"Fecha":"2017/02/03","Importe":81.18,"latitud":56.9934009,"longitud":24.3022789,"Ciudad":"Berģi"},
{"id":36,"Fecha":"2017/05/23","Importe":33.82,"latitud":-6.308986,"longitud":106.8766009,"Ciudad":"Galis Dua"},
{"id":37,"Fecha":"2017/05/04","Importe":22.7,"latitud":36.3548175,"longitud":36.6980807,"Ciudad":"Medaya"},
{"id":38,"Fecha":"2017/03/01","Importe":30.22,"latitud":39.3045749,"longitud":-7.7271881,"Ciudad":"Aldeia da Mata"},
{"id":39,"Fecha":"2017/02/02","Importe":66.39,"latitud":32.6901244,"longitud":-96.937016,"Ciudad":"Dallas"},
{"id":40,"Fecha":"2017/10/16","Importe":71.72,"latitud":-6.9604107,"longitud":107.6002254,"Ciudad":"Kutamangu"},
{"id":41,"Fecha":"2017/05/25","Importe":51.56,"latitud":58.322001,"longitud":12.3145938,"Ciudad":"Trollhättan"},
{"id":42,"Fecha":"2017/05/05","Importe":98.25,"latitud":57.8374522,"longitud":56.2706202,"Ciudad":"Froly"},
{"id":43,"Fecha":"2017/01/15","Importe":79.96,"latitud":32.4937455,"longitud":-116.9552547,"Ciudad":"La Mesa"},
{"id":44,"Fecha":"2017/10/17","Importe":34.62,"latitud":40.229627,"longitud":22.4989768,"Ciudad":"Néa Éfesos"},
{"id":45,"Fecha":"2017/11/09","Importe":64.38,"latitud":38.7226348,"longitud":-9.0038291,"Ciudad":"Samouco"},
{"id":46,"Fecha":"2017/06/13","Importe":52.5,"latitud":54.1415093,"longitud":15.3283906,"Ciudad":"Mrzeżyno"},
{"id":47,"Fecha":"2017/07/23","Importe":10.59,"latitud":61.1699194,"longitud":33.0828972,"Ciudad":"Kola"},
{"id":48,"Fecha":"2017/08/12","Importe":90.83,"latitud":44.3398061,"longitud":17.2712934,"Ciudad":"Jajce"},
{"id":49,"Fecha":"2017/02/11","Importe":85.21,"latitud":52.5871233,"longitud":33.7634935,"Ciudad":"Trubchevsk"},
{"id":50,"Fecha":"2017/07/27","Importe":55.08,"latitud":-12.182745,"longitud":-39.2167652,"Ciudad":"Anguera"},
{"id":51,"Fecha":"2018/01/09","Importe":57.62,"latitud":29.046337,"longitud":93.074702,"Ciudad":"Nangxian"},
{"id":52,"Fecha":"2017/12/17","Importe":78.26,"latitud":49.8189015,"longitud":24.3031209,"Ciudad":"Verkhnyaya Belka"},
{"id":53,"Fecha":"2017/10/15","Importe":66.98,"latitud":49.6085752,"longitud":16.6797892,"Ciudad":"Velké Opatovice"},
{"id":54,"Fecha":"2017/06/22","Importe":2.47,"latitud":40.9175193,"longitud":-8.4280201,"Ciudad":"Cruzeiro"},
{"id":55,"Fecha":"2017/04/04","Importe":7.28,"latitud":45.271697,"longitud":-66.0549467,"Ciudad":"Saint John"},
{"id":56,"Fecha":"2017/10/08","Importe":75.28,"latitud":50.4553587,"longitud":30.7716386,"Ciudad":"Knyazhichi"},
{"id":57,"Fecha":"2017/06/03","Importe":87.07,"latitud":2.028983,"longitud":101.585899,"Ciudad":"Titiakar"},
{"id":58,"Fecha":"2017/07/23","Importe":62.45,"latitud":39.5245194,"longitud":-8.1915991,"Ciudad":"Sentieiras"},
{"id":59,"Fecha":"2017/04/13","Importe":82.13,"latitud":29.276391,"longitud":109.709717,"Ciudad":"Ruchihe"},
{"id":60,"Fecha":"2017/02/23","Importe":43.93,"latitud":-7.0555388,"longitud":107.5767035,"Ciudad":"Batojaran"},
{"id":61,"Fecha":"2017/10/04","Importe":94.55,"latitud":41.7156359,"longitud":20.9777418,"Ciudad":"Srbinovo"},
{"id":62,"Fecha":"2017/10/25","Importe":65.76,"latitud":21.857958,"longitud":111.982232,"Ciudad":"Yongjiang"},
{"id":63,"Fecha":"2017/10/14","Importe":19.94,"latitud":35.057659,"longitud":33.2419422,"Ciudad":"Ergates"},
{"id":64,"Fecha":"2017/01/17","Importe":34.19,"latitud":39.3408388,"longitud":23.0126047,"Ciudad":"Agriá"},
{"id":65,"Fecha":"2017/01/27","Importe":3.61,"latitud":1.9130964,"longitud":33.171699,"Ciudad":"Dokolo"},
{"id":66,"Fecha":"2017/02/11","Importe":7.68,"latitud":12.8383201,"longitud":-85.4607639,"Ciudad":"Matiguás"},
{"id":67,"Fecha":"2018/01/05","Importe":71.5,"latitud":30.2873739,"longitud":120.1527409,"Ciudad":"Mishixiang"},
{"id":68,"Fecha":"2017/08/25","Importe":68.41,"latitud":45.0058742,"longitud":39.06949,"Ciudad":"Nikol’skoye"},
{"id":69,"Fecha":"2017/06/20","Importe":74.01,"latitud":-26.3517681,"longitud":27.3914185,"Ciudad":"Carletonville"},
{"id":70,"Fecha":"2017/04/03","Importe":94.74,"latitud":-8.5436245,"longitud":115.1281425,"Ciudad":"Delodpeken"},
{"id":71,"Fecha":"2017/08/10","Importe":25.03,"latitud":49.6005751,"longitud":6.3670151,"Ciudad":"Lenningen"},
{"id":72,"Fecha":"2017/07/25","Importe":7.66,"latitud":41.6704519,"longitud":-4.7135268,"Ciudad":"Valladolid"},
{"id":73,"Fecha":"2017/02/08","Importe":51.44,"latitud":52.1859951,"longitud":20.8461704,"Ciudad":"Piastów"},
{"id":74,"Fecha":"2017/02/02","Importe":50.95,"latitud":27.218444,"longitud":116.525725,"Ciudad":"Nanfeng"},
{"id":75,"Fecha":"2017/11/22","Importe":79.96,"latitud":43.8177168,"longitud":4.343135,"Ciudad":"Nîmes"},
{"id":76,"Fecha":"2017/01/31","Importe":30.04,"latitud":1.6737761,"longitud":101.4367539,"Ciudad":"Rimba Sekampung"},
{"id":77,"Fecha":"2017/01/20","Importe":73.62,"latitud":47.910483,"longitud":33.391783,"Ciudad":"Kryvyy Rih"},
{"id":78,"Fecha":"2017/05/25","Importe":92.88,"latitud":39.4721887,"longitud":-84.4772033,"Ciudad":"Hamilton"},
{"id":79,"Fecha":"2017/03/31","Importe":87.47,"latitud":42.24472,"longitud":130.308899,"Ciudad":"Najin"},
{"id":80,"Fecha":"2017/12/11","Importe":65.48,"latitud":43.5211998,"longitud":16.5578656,"Ciudad":"Žrnovnica"},
{"id":81,"Fecha":"2017/12/26","Importe":8.27,"latitud":-26.3448416,"longitud":28.3622933,"Ciudad":"Vredendal"},
{"id":82,"Fecha":"2017/03/12","Importe":70.97,"latitud":46.0457437,"longitud":14.8410058,"Ciudad":"Šmartno pri Litiji"},
{"id":83,"Fecha":"2017/01/13","Importe":12.16,"latitud":52.286684,"longitud":104.292306,"Ciudad":"Ivot"},
{"id":84,"Fecha":"2017/02/15","Importe":75.21,"latitud":49.3893564,"longitud":20.1858091,"Ciudad":"Łapsze Niżne"},
{"id":85,"Fecha":"2017/05/19","Importe":38.93,"latitud":"-8.7482","longitud":"116.3038","Ciudad":"Bagiktinggang"},
{"id":86,"Fecha":"2017/06/02","Importe":34.97,"latitud":2.384507,"longitud":-75.542888,"Ciudad":"Gigante"},
{"id":87,"Fecha":"2017/09/19","Importe":85.71,"latitud":55.5146696,"longitud":35.8272389,"Ciudad":"Semënovskoye"},
{"id":88,"Fecha":"2017/03/08","Importe":53.62,"latitud":31.026394,"longitud":103.757315,"Ciudad":"Longqiao"},
{"id":89,"Fecha":"2017/03/04","Importe":76.4,"latitud":-3.9257199,"longitud":29.9899512,"Ciudad":"Rutana"},
{"id":90,"Fecha":"2017/07/17","Importe":49.99,"latitud":36.1638542,"longitud":139.0842383,"Ciudad":"Inazawa"},
{"id":91,"Fecha":"2017/08/30","Importe":68.64,"latitud":25.918786,"longitud":119.373428,"Ciudad":"Shanggan"},
{"id":92,"Fecha":"2017/06/17","Importe":48.81,"latitud":40.761653,"longitud":112.378894,"Ciudad":"Dayushu"},
{"id":93,"Fecha":"2017/03/05","Importe":38.96,"latitud":40.3306084,"longitud":21.7886602,"Ciudad":"Koíla"},
{"id":94,"Fecha":"2017/07/12","Importe":44.28,"latitud":22.405325,"longitud":107.353437,"Ciudad":"Jiangzhou"},
{"id":95,"Fecha":"2017/01/12","Importe":29.11,"latitud":31.032243,"longitud":121.227747,"Ciudad":"Songjiang"},
{"id":96,"Fecha":"2017/07/12","Importe":51.74,"latitud":-7.4250762,"longitud":108.2822389,"Ciudad":"Cinunjang"},
{"id":97,"Fecha":"2017/05/19","Importe":57.63,"latitud":41.4808684,"longitud":-8.3624629,"Ciudad":"Loureiro"},
{"id":98,"Fecha":"2017/08/23","Importe":99.54,"latitud":"35.84026","longitud":"65.2309","Ciudad":"Bal Chirāgh"},
{"id":99,"Fecha":"2017/11/24","Importe":1.8,"latitud":29.1416432,"longitud":119.7889248,"Ciudad":"Zhoujiang"},
{"id":100,"Fecha":"2017/04/07","Importe":73.53,"latitud":-3.701499,"longitud":-40.3496894,"Ciudad":"Sobral"}]